<svg width="28" height="26" viewBox="0 0 28 26" fill="none" xmlns="http://www.w3.org/2000/svg">
<path d="M13.958 18.2498V3.5498" stroke="white" stroke-linecap="round" stroke-linejoin="round"/>
<path d="M7.32861 11.9497L13.958 18.2497L20.5874 11.9497" stroke="white" stroke-linecap="round" stroke-linejoin="round"/>
<path d="M21.6922 22.4497H6.22363" stroke="white" stroke-linecap="round" stroke-linejoin="round"/>
</svg>
